%YAML 1.1
%TAG !u! tag:unity3d.com,2011:
--- !u!74 &7400000
AnimationClip:
  m_ObjectHideFlags: 0
  m_CorrespondingSourceObject: {fileID: 0}
  m_PrefabInstance: {fileID: 0}
  m_PrefabAsset: {fileID: 0}
  m_Name: testPlayer_idle_6
  serializedVersion: 6
  m_Legacy: 0
  m_Compressed: 0
  m_UseHighQualityCurve: 1
  m_RotationCurves: []
  m_CompressedRotationCurves: []
  m_EulerCurves: []
  m_PositionCurves: []
  m_ScaleCurves: []
  m_FloatCurves: []
  m_PPtrCurves:
  - curve:
    - time: 0
      value: {fileID: 1309500715, guid: 5cf14e244936b3c43b4c34be1985adc1, type: 3}
    - time: 0.083333336
      value: {fileID: -1551014012, guid: 5cf14e244936b3c43b4c34be1985adc1, type: 3}
    - time: 0.16666667
      value: {fileID: 849891037, guid: 5cf14e244936b3c43b4c34be1985adc1, type: 3}
    - time: 0.25
      value: {fileID: 106823101, guid: 5cf14e244936b3c43b4c34be1985adc1, type: 3}
    - time: 0.33333334
      value: {fileID: -1095320070, guid: 5cf14e244936b3c43b4c34be1985adc1, type: 3}
    - time: 0.41666666
      value: {fileID: -1078795444, guid: 5cf14e244936b3c43b4c34be1985adc1, type: 3}
    - time: 0.5
      value: {fileID: 1081851151, guid: 5cf14e244936b3c43b4c34be1985adc1, type: 3}
    - time: 0.5833333
      value: {fileID: 1368845195, guid: 5cf14e244936b3c43b4c34be1985adc1, type: 3}
    - time: 0.6666667
      value: {fileID: -2034141562, guid: 5cf14e244936b3c43b4c34be1985adc1, type: 3}
    - time: 0.75
      value: {fileID: 920212184, guid: 5cf14e244936b3c43b4c34be1985adc1, type: 3}
    - time: 0.8333333
      value: {fileID: 1069768942, guid: 5cf14e244936b3c43b4c34be1985adc1, type: 3}
    - time: 0.9166667
      value: {fileID: 1163569365, guid: 5cf14e244936b3c43b4c34be1985adc1, type: 3}
    - time: 1
      value: {fileID: -1470553294, guid: 5cf14e244936b3c43b4c34be1985adc1, type: 3}
    - time: 1.0833334
      value: {fileID: 1038771068, guid: 5cf14e244936b3c43b4c34be1985adc1, type: 3}
    - time: 1.1666666
      value: {fileID: -300212275, guid: 5cf14e244936b3c43b4c34be1985adc1, type: 3}
    - time: 1.25
      value: {fileID: 2060863828, guid: 5cf14e244936b3c43b4c34be1985adc1, type: 3}
    - time: 1.3333334
      value: {fileID: 1630624224, guid: 5cf14e244936b3c43b4c34be1985adc1, type: 3}
    - time: 1.4166666
      value: {fileID: -2104056751, guid: 5cf14e244936b3c43b4c34be1985adc1, type: 3}
    - time: 1.5
      value: {fileID: -237811389, guid: 5cf14e244936b3c43b4c34be1985adc1, type: 3}
    - time: 1.5833334
      value: {fileID: 1279650823, guid: 5cf14e244936b3c43b4c34be1985adc1, type: 3}
    - time: 1.6666666
      value: {fileID: -97150589, guid: 5cf14e244936b3c43b4c34be1985adc1, type: 3}
    - time: 1.75
      value: {fileID: -1144174416, guid: 5cf14e244936b3c43b4c34be1985adc1, type: 3}
    - time: 1.8333334
      value: {fileID: -1216153129, guid: 5cf14e244936b3c43b4c34be1985adc1, type: 3}
    - time: 1.9166666
      value: {fileID: -2055279426, guid: 5cf14e244936b3c43b4c34be1985adc1, type: 3}
    attribute: m_Sprite
    path: 
    classID: 212
    script: {fileID: 0}
  m_SampleRate: 12
  m_WrapMode: 0
  m_Bounds:
    m_Center: {x: 0, y: 0, z: 0}
    m_Extent: {x: 0, y: 0, z: 0}
  m_ClipBindingConstant:
    genericBindings:
    - serializedVersion: 2
      path: 0
      attribute: 0
      script: {fileID: 0}
      typeID: 212
      customType: 23
      isPPtrCurve: 1
    pptrCurveMapping:
    - {fileID: 1309500715, guid: 5cf14e244936b3c43b4c34be1985adc1, type: 3}
    - {fileID: -1551014012, guid: 5cf14e244936b3c43b4c34be1985adc1, type: 3}
    - {fileID: 849891037, guid: 5cf14e244936b3c43b4c34be1985adc1, type: 3}
    - {fileID: 106823101, guid: 5cf14e244936b3c43b4c34be1985adc1, type: 3}
    - {fileID: -1095320070, guid: 5cf14e244936b3c43b4c34be1985adc1, type: 3}
    - {fileID: -1078795444, guid: 5cf14e244936b3c43b4c34be1985adc1, type: 3}
    - {fileID: 1081851151, guid: 5cf14e244936b3c43b4c34be1985adc1, type: 3}
    - {fileID: 1368845195, guid: 5cf14e244936b3c43b4c34be1985adc1, type: 3}
    - {fileID: -2034141562, guid: 5cf14e244936b3c43b4c34be1985adc1, type: 3}
    - {fileID: 920212184, guid: 5cf14e244936b3c43b4c34be1985adc1, type: 3}
    - {fileID: 1069768942, guid: 5cf14e244936b3c43b4c34be1985adc1, type: 3}
    - {fileID: 1163569365, guid: 5cf14e244936b3c43b4c34be1985adc1, type: 3}
    - {fileID: -1470553294, guid: 5cf14e244936b3c43b4c34be1985adc1, type: 3}
    - {fileID: 1038771068, guid: 5cf14e244936b3c43b4c34be1985adc1, type: 3}
    - {fileID: -300212275, guid: 5cf14e244936b3c43b4c34be1985adc1, type: 3}
    - {fileID: 2060863828, guid: 5cf14e244936b3c43b4c34be1985adc1, type: 3}
    - {fileID: 1630624224, guid: 5cf14e244936b3c43b4c34be1985adc1, type: 3}
    - {fileID: -2104056751, guid: 5cf14e244936b3c43b4c34be1985adc1, type: 3}
    - {fileID: -237811389, guid: 5cf14e244936b3c43b4c34be1985adc1, type: 3}
    - {fileID: 1279650823, guid: 5cf14e244936b3c43b4c34be1985adc1, type: 3}
    - {fileID: -97150589, guid: 5cf14e244936b3c43b4c34be1985adc1, type: 3}
    - {fileID: -1144174416, guid: 5cf14e244936b3c43b4c34be1985adc1, type: 3}
    - {fileID: -1216153129, guid: 5cf14e244936b3c43b4c34be1985adc1, type: 3}
    - {fileID: -2055279426, guid: 5cf14e244936b3c43b4c34be1985adc1, type: 3}
  m_AnimationClipSettings:
    serializedVersion: 2
    m_AdditiveReferencePoseClip: {fileID: 0}
    m_AdditiveReferencePoseTime: 0
    m_StartTime: 0
    m_StopTime: 2
    m_OrientationOffsetY: 0
    m_Level: 0
    m_CycleOffset: 0
    m_HasAdditiveReferencePose: 0
    m_LoopTime: 1
    m_LoopBlend: 0
    m_LoopBlendOrientation: 0
    m_LoopBlendPositionY: 0
    m_LoopBlendPositionXZ: 0
    m_KeepOriginalOrientation: 0
    m_KeepOriginalPositionY: 1
    m_KeepOriginalPositionXZ: 0
    m_HeightFromFeet: 0
    m_Mirror: 0
  m_EditorCurves: []
  m_EulerEditorCurves: []
  m_HasGenericRootTransform: 0
  m_HasMotionFloatCurves: 0
  m_Events: []
