%YAML 1.1
%TAG !u! tag:unity3d.com,2011:
--- !u!74 &7400000
AnimationClip:
  m_ObjectHideFlags: 0
  m_CorrespondingSourceObject: {fileID: 0}
  m_PrefabInstance: {fileID: 0}
  m_PrefabAsset: {fileID: 0}
  m_Name: testPlayer_idle_7
  serializedVersion: 6
  m_Legacy: 0
  m_Compressed: 0
  m_UseHighQualityCurve: 1
  m_RotationCurves: []
  m_CompressedRotationCurves: []
  m_EulerCurves: []
  m_PositionCurves: []
  m_ScaleCurves: []
  m_FloatCurves: []
  m_PPtrCurves:
  - curve:
    - time: 0
      value: {fileID: 444281277, guid: 5cf14e244936b3c43b4c34be1985adc1, type: 3}
    - time: 0.083333336
      value: {fileID: -520193858, guid: 5cf14e244936b3c43b4c34be1985adc1, type: 3}
    - time: 0.16666667
      value: {fileID: 831349597, guid: 5cf14e244936b3c43b4c34be1985adc1, type: 3}
    - time: 0.25
      value: {fileID: 976716637, guid: 5cf14e244936b3c43b4c34be1985adc1, type: 3}
    - time: 0.33333334
      value: {fileID: 1484948739, guid: 5cf14e244936b3c43b4c34be1985adc1, type: 3}
    - time: 0.41666666
      value: {fileID: -416923866, guid: 5cf14e244936b3c43b4c34be1985adc1, type: 3}
    - time: 0.5
      value: {fileID: -1461079310, guid: 5cf14e244936b3c43b4c34be1985adc1, type: 3}
    - time: 0.5833333
      value: {fileID: -1439052619, guid: 5cf14e244936b3c43b4c34be1985adc1, type: 3}
    - time: 0.6666667
      value: {fileID: 1746167141, guid: 5cf14e244936b3c43b4c34be1985adc1, type: 3}
    - time: 0.75
      value: {fileID: -2088510010, guid: 5cf14e244936b3c43b4c34be1985adc1, type: 3}
    - time: 0.8333333
      value: {fileID: 1861425853, guid: 5cf14e244936b3c43b4c34be1985adc1, type: 3}
    - time: 0.9166667
      value: {fileID: -1165325897, guid: 5cf14e244936b3c43b4c34be1985adc1, type: 3}
    - time: 1
      value: {fileID: -203781730, guid: 5cf14e244936b3c43b4c34be1985adc1, type: 3}
    - time: 1.0833334
      value: {fileID: -80514675, guid: 5cf14e244936b3c43b4c34be1985adc1, type: 3}
    - time: 1.1666666
      value: {fileID: 426694425, guid: 5cf14e244936b3c43b4c34be1985adc1, type: 3}
    - time: 1.25
      value: {fileID: -1667252261, guid: 5cf14e244936b3c43b4c34be1985adc1, type: 3}
    - time: 1.3333334
      value: {fileID: -1683019011, guid: 5cf14e244936b3c43b4c34be1985adc1, type: 3}
    - time: 1.4166666
      value: {fileID: 505247532, guid: 5cf14e244936b3c43b4c34be1985adc1, type: 3}
    - time: 1.5
      value: {fileID: -777049638, guid: 5cf14e244936b3c43b4c34be1985adc1, type: 3}
    - time: 1.5833334
      value: {fileID: 562529932, guid: 5cf14e244936b3c43b4c34be1985adc1, type: 3}
    - time: 1.6666666
      value: {fileID: 456840025, guid: 5cf14e244936b3c43b4c34be1985adc1, type: 3}
    - time: 1.75
      value: {fileID: 1634310660, guid: 5cf14e244936b3c43b4c34be1985adc1, type: 3}
    - time: 1.8333334
      value: {fileID: 1337942976, guid: 5cf14e244936b3c43b4c34be1985adc1, type: 3}
    - time: 1.9166666
      value: {fileID: 1630390949, guid: 5cf14e244936b3c43b4c34be1985adc1, type: 3}
    attribute: m_Sprite
    path: 
    classID: 212
    script: {fileID: 0}
  m_SampleRate: 12
  m_WrapMode: 0
  m_Bounds:
    m_Center: {x: 0, y: 0, z: 0}
    m_Extent: {x: 0, y: 0, z: 0}
  m_ClipBindingConstant:
    genericBindings:
    - serializedVersion: 2
      path: 0
      attribute: 0
      script: {fileID: 0}
      typeID: 212
      customType: 23
      isPPtrCurve: 1
    pptrCurveMapping:
    - {fileID: 444281277, guid: 5cf14e244936b3c43b4c34be1985adc1, type: 3}
    - {fileID: -520193858, guid: 5cf14e244936b3c43b4c34be1985adc1, type: 3}
    - {fileID: 831349597, guid: 5cf14e244936b3c43b4c34be1985adc1, type: 3}
    - {fileID: 976716637, guid: 5cf14e244936b3c43b4c34be1985adc1, type: 3}
    - {fileID: 1484948739, guid: 5cf14e244936b3c43b4c34be1985adc1, type: 3}
    - {fileID: -416923866, guid: 5cf14e244936b3c43b4c34be1985adc1, type: 3}
    - {fileID: -1461079310, guid: 5cf14e244936b3c43b4c34be1985adc1, type: 3}
    - {fileID: -1439052619, guid: 5cf14e244936b3c43b4c34be1985adc1, type: 3}
    - {fileID: 1746167141, guid: 5cf14e244936b3c43b4c34be1985adc1, type: 3}
    - {fileID: -2088510010, guid: 5cf14e244936b3c43b4c34be1985adc1, type: 3}
    - {fileID: 1861425853, guid: 5cf14e244936b3c43b4c34be1985adc1, type: 3}
    - {fileID: -1165325897, guid: 5cf14e244936b3c43b4c34be1985adc1, type: 3}
    - {fileID: -203781730, guid: 5cf14e244936b3c43b4c34be1985adc1, type: 3}
    - {fileID: -80514675, guid: 5cf14e244936b3c43b4c34be1985adc1, type: 3}
    - {fileID: 426694425, guid: 5cf14e244936b3c43b4c34be1985adc1, type: 3}
    - {fileID: -1667252261, guid: 5cf14e244936b3c43b4c34be1985adc1, type: 3}
    - {fileID: -1683019011, guid: 5cf14e244936b3c43b4c34be1985adc1, type: 3}
    - {fileID: 505247532, guid: 5cf14e244936b3c43b4c34be1985adc1, type: 3}
    - {fileID: -777049638, guid: 5cf14e244936b3c43b4c34be1985adc1, type: 3}
    - {fileID: 562529932, guid: 5cf14e244936b3c43b4c34be1985adc1, type: 3}
    - {fileID: 456840025, guid: 5cf14e244936b3c43b4c34be1985adc1, type: 3}
    - {fileID: 1634310660, guid: 5cf14e244936b3c43b4c34be1985adc1, type: 3}
    - {fileID: 1337942976, guid: 5cf14e244936b3c43b4c34be1985adc1, type: 3}
    - {fileID: 1630390949, guid: 5cf14e244936b3c43b4c34be1985adc1, type: 3}
  m_AnimationClipSettings:
    serializedVersion: 2
    m_AdditiveReferencePoseClip: {fileID: 0}
    m_AdditiveReferencePoseTime: 0
    m_StartTime: 0
    m_StopTime: 2
    m_OrientationOffsetY: 0
    m_Level: 0
    m_CycleOffset: 0
    m_HasAdditiveReferencePose: 0
    m_LoopTime: 1
    m_LoopBlend: 0
    m_LoopBlendOrientation: 0
    m_LoopBlendPositionY: 0
    m_LoopBlendPositionXZ: 0
    m_KeepOriginalOrientation: 0
    m_KeepOriginalPositionY: 1
    m_KeepOriginalPositionXZ: 0
    m_HeightFromFeet: 0
    m_Mirror: 0
  m_EditorCurves: []
  m_EulerEditorCurves: []
  m_HasGenericRootTransform: 0
  m_HasMotionFloatCurves: 0
  m_Events: []
