%YAML 1.1
%TAG !u! tag:unity3d.com,2011:
--- !u!1045 &1
EditorBuildSettings:
  m_ObjectHideFlags: 0
  serializedVersion: 2
  m_Scenes:
  - enabled: 1
    path: Assets/Scenes/Menu/MainMenuWithBackground.unity
    guid: f082111f0a7c5054a8ef84a63b17f502
  - enabled: 1
    path: Assets/Scenes/Levels/MainLevel.unity
    guid: f8b81db0a85043640bcf081aa04dfb90
  m_configObjects: {}
